0 2 9 16 14 0 0 8 3 6 10 0 0 0 7 4
0 0 0 0 2 0 0 13 9 15 0 0 12 8 16 0
11 0 0 12 0 0 0 4 0 7 0 2 5 0 0 9
0 1 0 0 0 0 0 12 11 5 8 14 0 0 0 13
9 6 8 0 0 0 0 0 0 16 7 0 0 0 11 10
0 3 4 7 0 0 13 1 12 8 0 0 2 6 0 0
0 0 0 0 0 2 12 3 0 4 0 0 13 7 0 0
12 0 0 0 0 7 0 0 0 0 0 0 0 15 1 0
0 7 6 0 0 0 0 0 0 0 14 0 0 0 0 1
0 0 13 15 0 0 2 0 6 10 11 0 0 0 0 0
0 0 1 8 0 0 5 9 15 2 0 0 14 3 4 0
14 16 0 0 0 3 4 0 0 0 0 0 0 2 15 11
16 0 0 0 6 10 15 14 2 0 0 0 0 0 12 0
7 0 0 10 5 0 9 0 13 0 0 0 8 0 0 2
0 12 15 13 0 0 3 2 10 0 0 9 0 0 0 0
3 9 0 0 0 12 8 11 7 0 0 4 1 16 10 0
